[
  {
    "TriggerName": "BAT",
    "UserAddress": "0x0000000000000000000000000000000000000000",
    "ContractAddress": "0x0d8775f648430679a709e98d2b0cb6250d2887ef",
    "Method": "balanceOf(address)(uint256)"
  },
  {
    "TriggerName": "DGD",
    "UserAddress": "0x0000000000000000000000000000000000000000",
    "ContractAddress": "0xe0b7927c4af23765cb51314a0e0521a9645f0e2a",
    "Method": "balanceOf(address)(uint256)"
  },
  {
    "TriggerName": "Bytom",
    "UserAddress": "0x0000000000000000000000000000000000000000",
    "ContractAddress": "0xcb97e65f07da24d46bcdd078ebebd7c6e6e3d750",
    "Method": "balanceOf(address)(uint256)"
  },
  {
    "TriggerName": "BC",
    "UserAddress": "0x0000000000000000000000000000000000000000",
    "ContractAddress": "0x21ab6c9fac80c59d401b37cb43f81ea9dde7fe34",
    "Method": "balanceOf(address)(uint256)"
  },
  {
    "TriggerName": "ETHLAND",
    "UserAddress": "0x0000000000000000000000000000000000000000",
    "ContractAddress": "0x80fB784B7eD66730e8b1DBd9820aFD29931aab03",
    "Method": "balanceOf(address)(uint256)"
  },
  {
    "TriggerName": "Cryptaur",
    "UserAddress": "0x0000000000000000000000000000000000000000",
    "ContractAddress": "0x88d50b466be55222019d71f9e8fae17f5f45fca1",
    "Method": "balanceOf(address)(uint256)"
  },
  {
    "TriggerName": "BAT",
    "UserAddress": "0x0000000000000000000000000000000000000000",
    "ContractAddress": "0x0d8775f648430679a709e98d2b0cb6250d2887ef",
    "Method": "balanceOf(address)(uint256)"
  },
  {
    "TriggerName": "DGD",
    "UserAddress": "0x0000000000000000000000000000000000000000",
    "ContractAddress": "0xe0b7927c4af23765cb51314a0e0521a9645f0e2a",
    "Method": "balanceOf(address)(uint256)"
  },
  {
    "TriggerName": "Bytom",
    "UserAddress": "0x0000000000000000000000000000000000000000",
    "ContractAddress": "0xcb97e65f07da24d46bcdd078ebebd7c6e6e3d750",
    "Method": "balanceOf(address)(uint256)"
  },
  {
    "TriggerName": "BC",
    "UserAddress": "0x0000000000000000000000000000000000000000",
    "ContractAddress": "0x21ab6c9fac80c59d401b37cb43f81ea9dde7fe34",
    "Method": "balanceOf(address)(uint256)"
  },
  {
    "TriggerName": "ETHLAND",
    "UserAddress": "0x0000000000000000000000000000000000000000",
    "ContractAddress": "0x80fB784B7eD66730e8b1DBd9820aFD29931aab03",
    "Method": "balanceOf(address)(uint256)"
  },
  {
    "TriggerName": "Cryptaur",
    "UserAddress": "0x0000000000000000000000000000000000000000",
    "ContractAddress": "0x88d50b466be55222019d71f9e8fae17f5f45fca1",
    "Method": "balanceOf(address)(uint256)"
  },
  {
    "TriggerName": "BAT",
    "UserAddress": "0x0000000000000000000000000000000000000000",
    "ContractAddress": "0x0d8775f648430679a709e98d2b0cb6250d2887ef",
    "Method": "balanceOf(address)(uint256)"
  },
  {
    "TriggerName": "DGD",
    "UserAddress": "0x0000000000000000000000000000000000000000",
    "ContractAddress": "0xe0b7927c4af23765cb51314a0e0521a9645f0e2a",
    "Method": "balanceOf(address)(uint256)"
  },
  {
    "TriggerName": "Bytom",
    "UserAddress": "0x0000000000000000000000000000000000000000",
    "ContractAddress": "0xcb97e65f07da24d46bcdd078ebebd7c6e6e3d750",
    "Method": "balanceOf(address)(uint256)"
  },
  {
    "TriggerName": "BC",
    "UserAddress": "0x0000000000000000000000000000000000000000",
    "ContractAddress": "0x21ab6c9fac80c59d401b37cb43f81ea9dde7fe34",
    "Method": "balanceOf(address)(uint256)"
  },
  {
    "TriggerName": "ETHLAND",
    "UserAddress": "0x0000000000000000000000000000000000000000",
    "ContractAddress": "0x80fB784B7eD66730e8b1DBd9820aFD29931aab03",
    "Method": "balanceOf(address)(uint256)"
  },
  {
    "TriggerName": "Cryptaur",
    "UserAddress": "0x0000000000000000000000000000000000000000",
    "ContractAddress": "0x88d50b466be55222019d71f9e8fae17f5f45fca1",
    "Method": "balanceOf(address)(uint256)"
  }
]